Regular Expressions Tutorial
…
Now we can start dissecting trumps tweets

First get the hashtags: #alphanumeric and/or underscores

hashTags<-getRegEx("#[A-Za-z0-9_]+",trumpsTweets.tib$tweet)

# get the frequency of occurence in descending order
htTable<-sort( table(hashTags), decreasing = TRUE)
hashTags.tib<-tibble(
                words=names(htTable),
                frequency=htTable
                )
hashTags.tib

## # A tibble: 210 x 2
##    words               frequency
##    <chr>               <table>  
##  1 #Dorian             32       
##  2 #USMCA              25       
##  3 #KAG2020            21       
##  4 #MAGA               21       
##  5 #impeachment        11       
##  6 #1                   8       
##  7 #G7Biarritz          6       
##  8 #KeepAmericaGreat    6       
##  9 #NC09                6       
## 10 #WarRoomImpeachment  6       
## #  with 200 more rows
…
Now get the twitter handles: @alphanumeric and/or underscores; add in the retweeters, sort and tibblelize them:

handles<-getRegEx("@[A-Za-z0-9_]+",trumpsTweets.tib$tweet)

handles<-c( handles, trumpsTweets.tib$retweetFrom[trumpsTweets.tib$retweetFrom!=""])

hanTable<-sort(table(handles),decreasing  =TRUE)

handles.tib<-tibble(
                words=names(hanTable),
                frequency=hanTable
                )
handles.tib

## # A tibble: 720 x 2
##    words            frequency
##    <chr>            <table>  
##  1 @realDonaldTrump 453      
##  2 @WhiteHouse      140      
##  3 @Jim_Jordan       73      
##  4 @FoxNews          69      
##  5 @GOPChairwoman    64      
##  6 @RepMarkMeadows   53      
##  7 @foxandfriends    50      
##  8 @TeamTrump        44      
##  9 @POTUS            40      
## 10 @SteveScalise     37      
## #  with 710 more rows
…
[A-Z]+ => first word followed by a space

"(?:[A-Z.]+( |!|$)){2,} => at least two more words followed by either a space, exclamation point or end of line.

allCaps<-getRegEx("[A-Z']+ (?:[A-Z.']+( |!|$)){2,}",trumpsTweets.tib$tweet)

allCapsTable<-sort(table(allCaps), decreasing = TRUE)

allCaps.tib<-tibble(
                words=names(allCapsTable),
                frequency=allCapsTable
                )
allCaps.tib

## # A tibble: 156 x 2
##    words                                                       frequency
##    <chr>                                                       <table>  
##  1 KEEP AMERICA GREAT!                                         6        
##  2 MAKE AMERICA GREAT AGAIN!                                   6        
##  3 DRAIN THE SWAMP!                                            5        
##  4 I AM DRAINING THE SWAMP!                                    5        
##  5 I WANT NOTHING!                                             5        
##  6 "GET OUT AND VOTE "                                         3        
##  7 JOBS JOBS JOBS!                                             3        
##  8 READ THE TRANSCRIPT!                                        3        
##  9 SCHIFF'S FACT WITNESSES!                                    3        
## 10 BIG NIGHT FOR THE REPUBLICAN PARTY. CONGRATULATIONS TO ALL! 2        
## #  with 146 more rows
…
titleStrings<-getRegEx("[A-Z][a-z]+ (?:[A-Z][a-z]+( |!|$)){2,}",trumpsTweets.tib$tweet)

# remove beginning The's
titleStrings<-gsub("^The ","",titleStrings)

titleTable<-sort(table(titleStrings),decreasing = TRUE)

titleStrings.tib<-tibble(
                    words=names(titleTable),
                    frequency=titleTable
                  )
titleStrings.tib

## # A tibble: 698 x 2
##    words                     frequency
##    <chr>                     <table>  
##  1 "Do Nothing Democrats "   34       
##  2 "Fake News Media "        27       
##  3 "New York Times "         16       
##  4 "Do Nothing Dems "        14       
##  5 "United States "          14       
##  6 "Failing New York Times " 10       
##  7 "Nervous Nancy Pelosi "    8       
##  8 "Shifty Adam Schiff "      8       
##  9 Do Nothing Democrats!      7       
## 10 "Fake News "               7       
## #  with 688 more rows
…
